src/branch_jump_test.vcd
$date
	Mon Jul 14 18:07:33 2025
$end
$version
	Icarus Verilog
$end
$timescale
	1ps
$end
$scope module tb_branch_jump_test $end
$var wire 32 ! debug_signature [31:0] $end
$var wire 1 " store_enable $end
$var wire 1 # reg_write $end
$var wire 32 $ pc [31:0] $end
$var wire 1 % mem_to_reg $end
$var wire 1 & jump $end
$var wire 32 ' instruction_out [31:0] $end
$var wire 32 ( debug_reg_r9 [31:0] $end
$var wire 32 ) debug_reg_r2 [31:0] $end
$var wire 32 * debug_reg_r10 [31:0] $end
$var wire 32 + debug_reg_r1 [31:0] $end
$var wire 32 , debug_mem_addr_16 [31:0] $end
$var wire 32 - debug_cycle_counter [31:0] $end
$var wire 32 . current_pc [31:0] $end
$var wire 1 / bneq $end
$var wire 1 0 blt $end
$var wire 1 1 bgeq $end
$var wire 1 2 beq $end
$var wire 32 3 alu_result [31:0] $end
$var wire 32 4 alu_branch_result [31:0] $end
$var reg 1 5 all_tests_complete $end
$var reg 1 6 clk $end
$var reg 32 7 cycle_count [31:0] $end
$var reg 32 8 fail_count [31:0] $end
$var reg 32 9 pass_count [31:0] $end
$var reg 1 : rst $end
$var reg 1 ; test_beq_not_taken_done $end
$var reg 1 < test_beq_taken_done $end
$var reg 1 = test_bne_taken_done $end
$var reg 32 > test_count [31:0] $end
$var reg 1 ? test_jal_done $end
$var reg 1 @ test_jalr_done $end
$scope module dut $end
$var wire 32 A alu_branch_result [31:0] $end
$var wire 32 B alu_result [31:0] $end
$var wire 1 2 beq $end
$var wire 1 1 bgeq $end
$var wire 1 0 blt $end
$var wire 1 / bneq $end
$var wire 1 6 clk $end
$var wire 1 C control_transfer $end
$var wire 32 D current_pc [31:0] $end
$var wire 32 E debug_cycle_counter [31:0] $end
$var wire 32 F debug_mem_addr_16 [31:0] $end
$var wire 32 G debug_r10_internal [31:0] $end
$var wire 32 H debug_r1_internal [31:0] $end
$var wire 32 I debug_r2_internal [31:0] $end
$var wire 32 J debug_r9_internal [31:0] $end
$var wire 32 K debug_reg_r1 [31:0] $end
$var wire 32 L debug_reg_r10 [31:0] $end
$var wire 32 M debug_reg_r2 [31:0] $end
$var wire 32 N debug_reg_r9 [31:0] $end
$var wire 32 O debug_signature [31:0] $end
$var wire 32 P instruction_out [31:0] $end
$var wire 1 & jump $end
$var wire 1 % mem_to_reg $end
$var wire 32 Q pc [31:0] $end
$var wire 1 # reg_write $end
$var wire 1 : rst $end
$var wire 1 " store_enable $end
$var wire 32 R wb_write_data [31:0] $end
$var wire 1 S stall_pc $end
$var wire 1 T stall_if_id $end
$var wire 1 U mem_wb_reg_write $end
$var wire 5 V mem_wb_rd [4:0] $end
$var wire 32 W mem_wb_pc_plus_4 [31:0] $end
$var wire 1 X mem_wb_mem_to_reg $end
$var wire 32 Y mem_wb_mem_data [31:0] $end
$var wire 32 Z mem_wb_lui_imm [31:0] $end
$var wire 1 [ mem_wb_lui_control $end
$var wire 1 \ mem_wb_jump $end
$var wire 1 ] mem_wb_jalr $end
$var wire 32 ^ mem_wb_alu_result [31:0] $end
$var wire 1 _ mem_reg_write $end
$var wire 5 ` mem_rd [4:0] $end
$var wire 32 a mem_pc_plus_4 [31:0] $end
$var wire 1 b mem_mem_to_reg $end
$var wire 32 c mem_lui_imm [31:0] $end
$var wire 1 d mem_lui_control $end
$var wire 1 e mem_jump $end
$var wire 1 f mem_jalr $end
$var wire 32 g mem_data [31:0] $end
$var wire 32 h mem_branch_target [31:0] $end
$var wire 1 i mem_branch_taken $end
$var wire 32 j mem_alu_result [31:0] $end
$var wire 32 k if_pc_plus_4 [31:0] $end
$var wire 32 l if_pc [31:0] $end
$var wire 32 m if_instruction [31:0] $end
$var wire 32 n if_id_pc_plus_4 [31:0] $end
$var wire 32 o if_id_pc [31:0] $end
$var wire 32 p if_id_instruction [31:0] $end
$var wire 1 q if_id_flush $end
$var wire 1 r id_store_enable $end
$var wire 32 s id_selected_immediate [31:0] $end
$var wire 1 t id_reg_write $end
$var wire 32 u id_read_data2 [31:0] $end
$var wire 32 v id_read_data1 [31:0] $end
$var wire 1 w id_mem_to_reg $end
$var wire 2 x id_mem_size [1:0] $end
$var wire 1 y id_lui_control $end
$var wire 1 z id_jump $end
$var wire 1 { id_jalr $end
$var wire 1 | id_is_unsigned $end
$var wire 1 } id_ex_store_enable $end
$var wire 5 ~ id_ex_shamt [4:0] $end
$var wire 5 !" id_ex_rs2 [4:0] $end
$var wire 5 "" id_ex_rs1 [4:0] $end
$var wire 1 #" id_ex_reg_write $end
$var wire 32 $" id_ex_read_data2 [31:0] $end
$var wire 32 %" id_ex_read_data1 [31:0] $end
$var wire 5 &" id_ex_rd [4:0] $end
$var wire 32 '" id_ex_pc_plus_4 [31:0] $end
$var wire 32 (" id_ex_pc [31:0] $end
$var wire 1 )" id_ex_mem_to_reg $end
$var wire 2 *" id_ex_mem_size [1:0] $end
$var wire 1 +" id_ex_lui_control $end
$var wire 1 ," id_ex_lb $end
$var wire 1 -" id_ex_jump $end
$var wire 1 ." id_ex_jalr $end
$var wire 1 /" id_ex_is_unsigned $end
$var wire 32 0" id_ex_immediate [31:0] $end
$var wire 1 1" id_ex_flush $end
$var wire 1 2" id_ex_bneq_control $end
$var wire 1 3" id_ex_blt_control $end
$var wire 1 4" id_ex_bgeq_control $end
$var wire 1 5" id_ex_beq_control $end
$var wire 1 6" id_ex_alu_src $end
$var wire 6 7" id_ex_alu_control [5:0] $end
$var wire 1 8" id_bneq_control $end
$var wire 1 9" id_blt_control $end
$var wire 1 :" id_bgeq_control $end
$var wire 1 ;" id_beq_control $end
$var wire 1 <" id_alu_src $end
$var wire 6 =" id_alu_control [5:0] $end
$var wire 32 >" ex_write_data [31:0] $end
$var wire 5 ?" ex_rd [4:0] $end
$var wire 32 @" ex_pc_plus_4 [31:0] $end
$var wire 32 A" ex_mem_write_data [31:0] $end
$var wire 1 B" ex_mem_store_enable $end
$var wire 1 C" ex_mem_reg_write $end
$var wire 5 D" ex_mem_rd [4:0] $end
$var wire 32 E" ex_mem_pc_plus_4 [31:0] $end
$var wire 1 F" ex_mem_mem_to_reg $end
$var wire 2 G" ex_mem_mem_size [1:0] $end
$var wire 32 H" ex_mem_lui_imm [31:0] $end
$var wire 1 I" ex_mem_lui_control $end
$var wire 1 J" ex_mem_lb $end
$var wire 1 K" ex_mem_jump $end
$var wire 1 L" ex_mem_jalr $end
$var wire 1 M" ex_mem_is_unsigned $end
$var wire 32 N" ex_mem_branch_target [31:0] $end
$var wire 1 O" ex_mem_branch_taken $end
$var wire 1 P" ex_mem_branch_resolved $end
$var wire 32 Q" ex_mem_alu_result [31:0] $end
$var wire 32 R" ex_branch_target [31:0] $end
$var wire 1 S" ex_branch_taken $end
$var wire 1 T" ex_branch_resolved $end
$var wire 32 U" ex_alu_result [31:0] $end
$var wire 32 V" debug_mem_internal [31:0] $end
$var reg 32 W" cycle_counter [31:0] $end
$scope module EX_MEM_reg $end
$var wire 1 6 clk $end
$var wire 1 : rst $end
$var wire 32 X" write_data_in [31:0] $end
$var wire 1 } store_enable_in $end
$var wire 1 #" reg_write_in $end
$var wire 5 Y" rd_in [4:0] $end
$var wire 32 Z" pc_plus_4_in [31:0] $end
$var wire 1 )" mem_to_reg_in $end
$var wire 2 [" mem_size_in [1:0] $end
$var wire 32 \" lui_imm_in [31:0] $end
$var wire 1 +" lui_control_in $end
$var wire 1 ," lb_in $end
$var wire 1 -" jump_in $end
$var wire 1 ." jalr_in $end
$var wire 1 /" is_unsigned_in $end
$var wire 32 ]" branch_target_in [31:0] $end
$var wire 1 S" branch_taken_in $end
$var wire 1 T" branch_resolved_in $end
$var wire 32 ^" alu_result_in [31:0] $end
$var reg 32 _" alu_result_out [31:0] $end
$var reg 1 P" branch_resolved_out $end
$var reg 1 O" branch_taken_out $end
$var reg 32 `" branch_target_out [31:0] $end
$var reg 1 M" is_unsigned_out $end
$var reg 1 L" jalr_out $end
$var reg 1 K" jump_out $end
$var reg 1 J" lb_out $end
$var reg 1 I" lui_control_out $end
$var reg 32 a" lui_imm_out [31:0] $end
$var reg 2 b" mem_size_out [1:0] $end
$var reg 1 F" mem_to_reg_out $end
$var reg 32 c" pc_plus_4_out [31:0] $end
$var reg 5 d" rd_out [4:0] $end
$var reg 1 C" reg_write_out $end
$var reg 1 B" store_enable_out $end
$var reg 32 e" write_data_out [31:0] $end
$upscope $end
$scope module EX_stage $end
$var wire 1 T" branch_resolved $end
$var wire 1 S" branch_taken_out $end
$var wire 1 6 clk $end
$var wire 32 f" ex_mem_alu_result [31:0] $end
$var wire 5 g" ex_mem_rd [4:0] $end
$var wire 1 C" ex_mem_reg_write $end
$var wire 1 h" is_branch $end
$var wire 32 i" pc_plus_4_out [31:0] $end
$var wire 5 j" rd_out [4:0] $end
$var wire 1 : rst $end
$var wire 32 k" write_data_out [31:0] $end
$var wire 5 l" shamt_in [4:0] $end
$var wire 5 m" rs2_in [4:0] $end
$var wire 5 n" rs1_in [4:0] $end
$var wire 32 o" read_data2_in [31:0] $end
$var wire 32 p" read_data1_in [31:0] $end
$var wire 5 q" rd_in [4:0] $end
$var wire 32 r" pc_plus_4_in [31:0] $end
$var wire 32 s" pc_in [31:0] $end
$var wire 32 t" mem_wb_result [31:0] $end
$var wire 1 U mem_wb_reg_write $end
$var wire 5 u" mem_wb_rd [4:0] $end
$var wire 1 -" jump_in $end
$var wire 1 ." jalr_in $end
$var wire 32 v" immediate_in [31:0] $end
$var wire 2 w" forward_b [1:0] $end
$var wire 2 x" forward_a [1:0] $end
$var wire 32 y" branch_target_out [31:0] $end
$var wire 1 z" branch_condition_met $end
$var wire 1 2" bneq_control_in $end
$var wire 1 3" blt_control_in $end
$var wire 1 4" bgeq_control_in $end
$var wire 1 5" beq_control_in $end
$var wire 1 6" alu_src_in $end
$var wire 32 {" alu_result_out [31:0] $end
$var wire 6 |" alu_control_in [5:0] $end
$scope module alu $end
$var wire 32 }" ex_mem_alu_result_in [31:0] $end
$var wire 5 ~" shamt [4:0] $end
$var wire 32 !# read_data2_in [31:0] $end
$var wire 32 "# read_data1_in [31:0] $end
$var wire 32 ## mem_wb_result_in [31:0] $end
$var wire 32 $# imm_val_r [31:0] $end
$var wire 32 %# forwarded_src2_reg [31:0] $end
$var wire 32 &# forwarded_src1 [31:0] $end
$var wire 2 '# forwardB [1:0] $end
$var wire 2 (# forwardA [1:0] $end
$var wire 32 )# final_src2 [31:0] $end
$var wire 1 6" alu_src $end
$var wire 6 *# alu_control [5:0] $end
$var reg 32 +# result [31:0] $end
$upscope $end
$scope module fu $end
$var wire 5 ,# ex_mem_rd [4:0] $end
$var wire 1 C" ex_mem_reg_write $end
$var wire 1 U mem_wb_reg_write $end
$var wire 5 -# mem_wb_rd [4:0] $end
$var wire 5 .# id_ex_rs2 [4:0] $end
$var wire 5 /# id_ex_rs1 [4:0] $end
$var reg 2 0# forwardA [1:0] $end
$var reg 2 1# forwardB [1:0] $end
$upscope $end
$upscope $end
$scope module ID_EX_reg $end
$var wire 1 6 clk $end
$var wire 5 2# rd_in [4:0] $end
$var wire 5 3# rs1_in [4:0] $end
$var wire 5 4# rs2_in [4:0] $end
$var wire 1 : rst $end
$var wire 5 5# shamt_in [4:0] $end
$var wire 1 r store_enable_in $end
$var wire 1 t reg_write_in $end
$var wire 32 6# read_data2_in [31:0] $end
$var wire 32 7# read_data1_in [31:0] $end
$var wire 32 8# pc_plus_4_in [31:0] $end
$var wire 32 9# pc_in [31:0] $end
$var wire 1 w mem_to_reg_in $end
$var wire 2 :# mem_size_in [1:0] $end
$var wire 1 y lui_control_in $end
$var wire 1 w lb_in $end
$var wire 1 z jump_in $end
$var wire 1 { jalr_in $end
$var wire 1 | is_unsigned_in $end
$var wire 32 ;# immediate_in [31:0] $end
$var wire 1 1" flush $end
$var wire 1 8" bneq_control_in $end
$var wire 1 9" blt_control_in $end
$var wire 1 :" bgeq_control_in $end
$var wire 1 ;" beq_control_in $end
$var wire 1 <" alu_src_in $end
$var wire 6 <# alu_control_in [5:0] $end
$var reg 6 =# alu_control_out [5:0] $end
$var reg 1 6" alu_src_out $end
$var reg 1 5" beq_control_out $end
$var reg 1 4" bgeq_control_out $end
$var reg 1 3" blt_control_out $end
$var reg 1 2" bneq_control_out $end
$var reg 32 ># immediate_out [31:0] $end
$var reg 1 /" is_unsigned_out $end
$var reg 1 ." jalr_out $end
$var reg 1 -" jump_out $end
$var reg 1 ," lb_out $end
$var reg 1 +" lui_control_out $end
$var reg 2 ?# mem_size_out [1:0] $end
$var reg 1 )" mem_to_reg_out $end
$var reg 32 @# pc_out [31:0] $end
$var reg 32 A# pc_plus_4_out [31:0] $end
$var reg 5 B# rd_out [4:0] $end
$var reg 32 C# read_data1_out [31:0] $end
$var reg 32 D# read_data2_out [31:0] $end
$var reg 1 #" reg_write_out $end
$var reg 5 E# rs1_out [4:0] $end
$var reg 5 F# rs2_out [4:0] $end
$var reg 5 G# shamt_out [4:0] $end
$var reg 1 } store_enable_out $end
$upscope $end
$scope module ID_stage $end
$var wire 1 H# branch_prediction $end
$var wire 1 6 clk $end
$var wire 32 I# debug_r1 [31:0] $end
$var wire 32 J# debug_r10 [31:0] $end
$var wire 32 K# debug_r2 [31:0] $end
$var wire 32 L# debug_r9 [31:0] $end
$var wire 1 M# ex_mem_branch_resolved $end
$var wire 1 O" ex_mem_branch_taken_actual $end
$var wire 32 N# ex_mem_branch_target_actual [31:0] $end
$var wire 1 F" ex_mem_mem_read $end
$var wire 5 O# ex_mem_rd [4:0] $end
$var wire 1 ," id_ex_mem_read $end
$var wire 5 P# id_ex_rd [4:0] $end
$var wire 1 Q# is_branch_instruction $end
$var wire 1 R# is_jump_instruction $end
$var wire 32 S# predicted_target [31:0] $end
$var wire 1 : rst $end
$var wire 5 T# write_reg_num [4:0] $end
$var wire 32 U# write_data [31:0] $end
$var wire 1 r store_enable $end
$var wire 1 S stall_pc $end
$var wire 1 T stall_if_id $end
$var wire 32 V# selected_immediate [31:0] $end
$var wire 1 t reg_write_out $end
$var wire 1 U reg_write $end
$var wire 32 W# read_data2 [31:0] $end
$var wire 32 X# read_data1 [31:0] $end
$var wire 5 Y# rd [4:0] $end
$var wire 32 Z# pc_plus_4_in [31:0] $end
$var wire 32 [# pc_in [31:0] $end
$var wire 7 \# opcode [6:0] $end
$var wire 1 w mem_to_reg $end
$var wire 2 ]# mem_size [1:0] $end
$var wire 1 y lui_control $end
$var wire 1 z jump $end
$var wire 1 { jalr $end
$var wire 1 | is_unsigned $end
$var wire 32 ^# instruction_in [31:0] $end
$var wire 32 _# imm_val_store [31:0] $end
$var wire 32 `# imm_val_lui [31:0] $end
$var wire 32 a# imm_val_jump [31:0] $end
$var wire 32 b# imm_val_i [31:0] $end
$var wire 32 c# imm_val_branch [31:0] $end
$var wire 1 q if_id_flush $end
$var wire 1 1" id_ex_flush $end
$var wire 1 8" bneq_control $end
$var wire 1 9" blt_control $end
$var wire 1 :" bgeq_control $end
$var wire 1 ;" beq_control $end
$var wire 1 <" alu_src $end
$var wire 6 d# alu_control [5:0] $end
$scope module cu $end
$var wire 3 e# funct3 [2:0] $end
$var wire 7 f# funct7 [6:0] $end
$var wire 7 g# opcode [6:0] $end
$var reg 6 h# alu_control [5:0] $end
$var reg 1 <" alu_src $end
$var reg 1 ;" beq_control $end
$var reg 1 :" bgeq_control $end
$var reg 1 9" blt_control $end
$var reg 1 8" bneq_control $end
$var reg 1 | is_unsigned $end
$var reg 1 { jalr $end
$var reg 1 z jump $end
$var reg 1 y lui_control $end
$var reg 2 i# mem_size [1:0] $end
$var reg 1 w mem_to_reg $end
$var reg 1 t reg_write $end
$var reg 1 r store_enable $end
$upscope $end
$scope module hdu $end
$var wire 1 M# branch_resolved $end
$var wire 1 O" branch_taken_actual $end
$var wire 32 j# branch_target_actual [31:0] $end
$var wire 1 ," id_ex_mem_read $end
$var wire 5 k# id_ex_rd [4:0] $end
$var wire 5 l# id_rs1 [4:0] $end
$var wire 5 m# id_rs2 [4:0] $end
$var wire 1 n# misprediction $end
$var wire 32 o# pc_plus_4 [31:0] $end
$var reg 1 1" id_ex_flush $end
$var reg 1 q if_id_flush $end
$var reg 1 T stall_if_id $end
$var reg 1 S stall_pc $end
$upscope $end
$scope module rfu $end
$var wire 1 6 clk $end
$var wire 32 p# debug_r1 [31:0] $end
$var wire 32 q# debug_r10 [31:0] $end
$var wire 32 r# debug_r2 [31:0] $end
$var wire 32 s# debug_r9 [31:0] $end
$var wire 5 t# read_reg_num1 [4:0] $end
$var wire 5 u# read_reg_num2 [4:0] $end
$var wire 1 : rst $end
$var wire 5 v# write_reg_num1 [4:0] $end
$var wire 32 w# write_data [31:0] $end
$var wire 1 U reg_write $end
$var wire 32 x# read_data2 [31:0] $end
$var wire 32 y# read_data1 [31:0] $end
$var integer 32 z# i [31:0] $end
$upscope $end
$upscope $end
$scope module IF_ID_reg $end
$var wire 1 6 clk $end
$var wire 1 q flush $end
$var wire 1 : rst $end
$var wire 1 T stall $end
$var wire 32 {# pc_plus_4_in [31:0] $end
$var wire 32 |# pc_in [31:0] $end
$var wire 32 }# instruction_in [31:0] $end
$var reg 32 ~# instruction_out [31:0] $end
$var reg 32 !$ pc_out [31:0] $end
$var reg 32 "$ pc_plus_4_out [31:0] $end
$upscope $end
$scope module IF_stage $end
$var wire 1 C branch_taken $end
$var wire 32 #$ branch_target [31:0] $end
$var wire 1 6 clk $end
$var wire 1 $$ jalr_taken $end
$var wire 1 %$ jump_taken $end
$var wire 32 &$ pc_out [31:0] $end
$var wire 32 '$ pc_plus_4_out [31:0] $end
$var wire 1 : rst $end
$var wire 1 S stall_pc $end
$var wire 32 ($ pc_plus_4 [31:0] $end
$var wire 32 )$ next_pc [31:0] $end
$var wire 32 *$ instruction_out [31:0] $end
$var reg 32 +$ pc [31:0] $end
$scope module imem $end
$var wire 1 6 clk $end
$var wire 32 ,$ pc [31:0] $end
$var wire 1 : reset $end
$var wire 32 -$ instruction_code [31:0] $end
$var integer 32 .$ i [31:0] $end
$upscope $end
$upscope $end
$scope module MEM_WB_reg $end
$var wire 1 6 clk $end
$var wire 1 : rst $end
$var wire 1 _ reg_write_in $end
$var wire 5 /$ rd_in [4:0] $end
$var wire 32 0$ pc_plus_4_in [31:0] $end
$var wire 1 b mem_to_reg_in $end
$var wire 32 1$ mem_data_in [31:0] $end
$var wire 32 2$ lui_imm_in [31:0] $end
$var wire 1 d lui_control_in $end
$var wire 1 e jump_in $end
$var wire 1 f jalr_in $end
$var wire 32 3$ alu_result_in [31:0] $end
$var reg 32 4$ alu_result_out [31:0] $end
$var reg 1 ] jalr_out $end
$var reg 1 \ jump_out $end
$var reg 1 [ lui_control_out $end
$var reg 32 5$ lui_imm_out [31:0] $end
$var reg 32 6$ mem_data_out [31:0] $end
$var reg 1 X mem_to_reg_out $end
$var reg 32 7$ pc_plus_4_out [31:0] $end
$var reg 5 8$ rd_out [4:0] $end
$var reg 1 U reg_write_out $end
$upscope $end
$scope module MEM_stage $end
$var wire 32 9$ alu_result_in [31:0] $end
$var wire 32 :$ alu_result_out [31:0] $end
$var wire 1 O" branch_taken_in $end
$var wire 1 i branch_taken_out $end
$var wire 32 ;$ branch_target_in [31:0] $end
$var wire 32 <$ branch_target_out [31:0] $end
$var wire 1 6 clk $end
$var wire 1 M" is_unsigned_in $end
$var wire 1 L" jalr_in $end
$var wire 1 f jalr_out $end
$var wire 1 K" jump_in $end
$var wire 1 e jump_out $end
$var wire 1 I" lui_control_in $end
$var wire 1 d lui_control_out $end
$var wire 32 =$ lui_imm_in [31:0] $end
$var wire 32 >$ lui_imm_out [31:0] $end
$var wire 2 ?$ mem_size_in [1:0] $end
$var wire 1 F" mem_to_reg_in $end
$var wire 1 b mem_to_reg_out $end
$var wire 32 @$ pc_plus_4_in [31:0] $end
$var wire 32 A$ pc_plus_4_out [31:0] $end
$var wire 5 B$ rd_in [4:0] $end
$var wire 5 C$ rd_out [4:0] $end
$var wire 1 C" reg_write_in $end
$var wire 1 _ reg_write_out $end
$var wire 1 : rst $end
$var wire 1 B" store_enable_in $end
$var wire 32 D$ write_data_in [31:0] $end
$var wire 32 E$ mem_data_out [31:0] $end
$var wire 32 F$ debug_mem_addr_16 [31:0] $end
$scope module dmu $end
$var wire 1 6 clk $end
$var wire 1 M" is_unsigned $end
$var wire 2 G$ mem_size [1:0] $end
$var wire 32 H$ read_addr [31:0] $end
$var wire 1 : rst $end
$var wire 32 I$ write_addr [31:0] $end
$var wire 32 J$ write_data [31:0] $end
$var wire 1 B" write_enable $end
$var wire 32 K$ read_data [31:0] $end
$var wire 32 L$ debug_mem_addr_16 [31:0] $end
$var integer 32 M$ i [31:0] $end
$upscope $end
$upscope $end
$scope module WB_stage $end
$var wire 32 N$ alu_result_in [31:0] $end
$var wire 1 ] jalr_in $end
$var wire 1 \ jump_in $end
$var wire 1 [ lui_control_in $end
$var wire 32 O$ lui_imm_in [31:0] $end
$var wire 32 P$ mem_data_in [31:0] $end
$var wire 1 X mem_to_reg_in $end
$var wire 32 Q$ pc_plus_4_in [31:0] $end
$var wire 5 R$ rd_register [4:0] $end
$var wire 1 U reg_write_in $end
$var wire 32 S$ write_data [31:0] $end
$upscope $end
$upscope $end
$scope task generate_final_report $end
$var real 1 T$ success_rate $end
$upscope $end
$scope task test_basic_functionality $end
$upscope $end
$scope task test_beq_not_taken $end
$upscope $end
$scope task test_beq_taken $end
$upscope $end
$scope task test_bne_taken $end
$upscope $end
$scope task test_jal $end
$upscope $end
$scope task test_jalr $end
$upscope $end
$upscope $end
$enddefinitions $end
#0
$dumpvars
r0 T$
bx S$
bz R$
bx Q$
bx P$
bx O$
bx N$
bx M$
bx L$
bx K$
bx J$
bx I$
bx H$
bx G$
bx F$
bx E$
bx D$
bx C$
bx B$
bx A$
bx @$
bx ?$
bx >$
bx =$
bx <$
bx ;$
bx :$
bx 9$
bx 8$
bx 7$
bx 6$
bx 5$
bx 4$
bx 3$
bx 2$
bx 1$
bx 0$
bx /$
bx .$
bx -$
bx ,$
bx +$
bx *$
bx )$
bx ($
bx '$
bx &$
0%$
0$$
bx #$
bx "$
bx !$
bx ~#
bx }#
bx |#
bx {#
bx z#
bx y#
bx x#
bx w#
bx v#
bx u#
bx t#
bx s#
bx r#
bx q#
bx p#
bx o#
xn#
bx m#
bx l#
bx k#
bx j#
bx i#
bx h#
bx g#
bx f#
bx e#
bx d#
bx0 c#
bx b#
bx0 a#
bx000000000000 `#
bx _#
bx ^#
bx ]#
bx \#
bx [#
bx Z#
bx Y#
bx X#
bx W#
bx V#
bx U#
bx T#
bx S#
0R#
0Q#
bx P#
bx O#
bx N#
zM#
bx L#
bx K#
bx J#
bx I#
0H#
bx G#
bx F#
bx E#
bx D#
bx C#
bx B#
bx A#
bx @#
bx ?#
bx >#
bx =#
bx <#
bx ;#
bx :#
bx 9#
bx 8#
bx 7#
bx 6#
bx 5#
bx 4#
bx 3#
bx 2#
bx 1#
bx 0#
bx /#
bx .#
bx -#
bx ,#
bx +#
bx *#
bx )#
bx (#
bx '#
bx &#
bx %#
bx $#
bx ##
bx "#
bx !#
bx ~"
bx }"
bx |"
bx {"
xz"
bx y"
bx x"
bx w"
bx v"
bx u"
bx t"
bx s"
bx r"
bx q"
bx p"
bx o"
bx n"
bx m"
bx l"
bx k"
bx j"
bx i"
xh"
bx g"
bx f"
bx e"
bx d"
bx c"
bx b"
bx a"
bx `"
bx _"
bx ^"
bx ]"
bx \"
bx ["
bx Z"
bx Y"
bx X"
bx W"
bx V"
bx U"
xT"
xS"
bx R"
bx Q"
xP"
xO"
bx N"
xM"
xL"
xK"
xJ"
xI"
bx H"
bx G"
xF"
bx E"
bx D"
xC"
xB"
bx A"
bx @"
bx ?"
bx >"
bx ="
x<"
x;"
x:"
x9"
x8"
bx 7"
x6"
x5"
x4"
x3"
x2"
x1"
bx 0"
x/"
x."
x-"
x,"
x+"
bx *"
x)"
bx ("
bx '"
bx &"
bx %"
bx $"
x#"
bx ""
bx !"
bx ~
x}
x|
x{
xz
xy
bx x
xw
bx v
bx u
xt
bx s
xr
xq
bx p
bx o
bx n
bx m
bx l
bx k
bx j
xi
bx h
bx g
xf
xe
xd
bx c
xb
bx a
bx `
x_
bx ^
x]
x\
x[
bx Z
bx Y
xX
bx W
bx V
xU
xT
xS
bx R
bx Q
bx P
b11011110101011011011111011101111 O
bx N
bx M
bx L
bx K
bx J
bx I
bx H
bx G
bx F
bx E
bx D
xC
bx B
bx A
0@
0?
b0 >
0=
0<
0;
1:
b0 9
b0 8
b0 7
06
05
bx 4
bx 3
x2
x1
x0
x/
bx .
bx -
bx ,
bx +
bx *
bx )
bx (
bx '
x&
x%
bx $
x#
x"
b11011110101011011011111011101111 !
$end
#5000
0T"
0S"
b0 R"
b0 ]"
b0 y"
b0 g
b0 1$
b0 E$
b0 K$
b0 x
b0 :#
b0 ]#
b0 i#
0{
0|
0y
0r
0z
09"
0:"
08"
0;"
0w
0t
0<"
b0 ="
b0 <#
b0 d#
b0 h#
b0 u
b0 6#
b0 W#
b0 x#
b0 v
b0 7#
b0 X#
b0 y#
b0 s
b0 ;#
b0 V#
0h"
b0 _#
b0 a#
b0 `#
b0 c#
b0 b#
b0 m#
b0 l#
b0 g#
b0 e#
b0 f#
b0 u#
b0 t#
b0 Y#
b0 \#
b0 5#
b0 2#
b0 4#
b0 3#
b0 )#
b0 %#
b0 >"
b0 X"
b0 k"
b0 &#
01"
0q
0T
0S
0&
00
01
0/
02
0z"
b0 4
b0 A
b0 3
b0 B
b0 U"
b0 ^"
b0 {"
b0 +#
b100 )$
0n#
0C
b0 R
b0 t"
b0 ##
b0 U#
b0 w#
b0 S$
b0 w"
b0 '#
b0 1#
b0 x"
b0 (#
b0 0#
b100 k
b100 {#
b100 '$
b100 ($
b101000000000000010010011 '
b101000000000000010010011 P
b101000000000000010010011 m
b101000000000000010010011 }#
b101000000000000010010011 *$
b101000000000000010010011 -$
b0 .
b0 D
b0 $
b0 Q
b0 l
b0 |#
b0 &$
b0 +$
b0 ,$
b0 S#
b0 n
b0 8#
b0 Z#
b0 o#
b0 "$
b0 p
b0 ^#
b0 ~#
b0 o
b0 9#
b0 [#
b0 !$
b0 *
b0 L
b0 G
b0 J#
b0 q#
b0 (
b0 N
b0 J
b0 L#
b0 s#
b0 )
b0 M
b0 I
b0 K#
b0 r#
b0 +
b0 K
b0 H
b0 I#
b0 p#
06"
b0 ~
b0 l"
b0 ~"
b0 G#
b0 ?"
b0 Y"
b0 j"
b0 &"
b0 q"
b0 B#
b0 P#
b0 k#
b0 !"
b0 m"
b0 .#
b0 F#
b0 ""
b0 n"
b0 /#
b0 E#
b0 0"
b0 \"
b0 v"
b0 $#
b0 >#
b0 $"
b0 o"
b0 !#
b0 D#
b0 %"
b0 p"
b0 "#
b0 C#
b0 @"
b0 Z"
b0 i"
b0 '"
b0 r"
b0 A#
b0 ("
b0 s"
b0 @#
b0 *"
b0 ["
b0 ?#
0/"
0,"
0+"
0."
0-"
03"
04"
02"
05"
0}
b0 7"
b0 |"
b0 *#
b0 =#
0)"
0#"
b0 h
b0 <$
b0 N"
b0 `"
b0 N#
b0 j#
b0 #$
b0 ;$
0i
0O"
0P"
b0 `
b0 /$
b0 C$
b0 D"
b0 d"
b0 g"
b0 ,#
b0 O#
b0 B$
b0 c
b0 2$
b0 >$
b0 H"
b0 a"
b0 =$
b0 a
b0 0$
b0 A$
b0 E"
b0 c"
b0 @$
b0 A"
b0 e"
b0 D$
b0 J$
b0 j
b0 3$
b0 :$
b0 Q"
b0 _"
b0 f"
b0 }"
b0 9$
b0 H$
b0 I$
b0 G"
b0 b"
b0 ?$
b0 G$
0M"
0f
0L"
0e
0K"
0d
0I"
0J"
0"
0B"
0b
0%
0F"
0_
0C"
b0 V
b0 u"
b0 -#
b0 T#
b0 v#
b0 8$
b0 Z
b0 5$
b0 O$
b0 W
b0 7$
b0 Q$
b0 Y
b0 6$
b0 P$
b0 ^
b0 4$
b0 N$
0]
0\
0[
0X
0#
0U
b0 -
b0 E
b0 W"
b100000000 .$
b100000 z#
b0 ,
b0 F
b0 V"
b0 F$
b0 L$
b10000000000 M$
16
#10000
06
#15000
b10000000000 M$
b100000 z#
b101000000000000010010011 '
b101000000000000010010011 P
b101000000000000010010011 m
b101000000000000010010011 }#
b101000000000000010010011 *$
b101000000000000010010011 -$
b100000000 .$
16
#20000
06
#25000
b101000000000000010010011 '
b101000000000000010010011 P
b101000000000000010010011 m
b101000000000000010010011 }#
b101000000000000010010011 *$
b101000000000000010010011 -$
b100000000 .$
b100000 z#
b10000000000 M$
16
#30000
06
#35000
b10000000000 M$
b100000 z#
b101000000000000010010011 '
b101000000000000010010011 P
b101000000000000010010011 m
b101000000000000010010011 }#
b101000000000000010010011 *$
b101000000000000010010011 -$
b100000000 .$
16
#40000
06
#45000
b101000000000000010010011 '
b101000000000000010010011 P
b101000000000000010010011 m
b101000000000000010010011 }#
b101000000000000010010011 *$
b101000000000000010010011 -$
b100000000 .$
b100000 z#
b10000000000 M$
16
#50000
06
#55000
b10000000000 M$
b100000 z#
b101000000000000010010011 '
b101000000000000010010011 P
b101000000000000010010011 m
b101000000000000010010011 }#
b101000000000000010010011 *$
b101000000000000010010011 -$
b100000000 .$
16
#60000
06
#65000
b101000000000000010010011 '
b101000000000000010010011 P
b101000000000000010010011 m
b101000000000000010010011 }#
b101000000000000010010011 *$
b101000000000000010010011 -$
b100000000 .$
b100000 z#
b10000000000 M$
16
#70000
06
