src/comprehensive_test.vcd
$date
	Mon Jul 14 17:02:22 2025
$end
$version
	Icarus Verilog
$end
$timescale
	1ps
$end
$scope module tb_comprehensive_test $end
$var wire 32 ! debug_signature [31:0] $end
$var wire 1 " store_enable $end
$var wire 1 # reg_write $end
$var wire 32 $ pc [31:0] $end
$var wire 1 % mem_to_reg $end
$var wire 1 & jump $end
$var wire 32 ' instruction_out [31:0] $end
$var wire 32 ( debug_reg_r9 [31:0] $end
$var wire 32 ) debug_reg_r2 [31:0] $end
$var wire 32 * debug_reg_r10 [31:0] $end
$var wire 32 + debug_reg_r1 [31:0] $end
$var wire 32 , debug_mem_addr_16 [31:0] $end
$var wire 32 - debug_cycle_counter [31:0] $end
$var wire 32 . current_pc [31:0] $end
$var wire 1 / bneq $end
$var wire 1 0 blt $end
$var wire 1 1 bgeq $end
$var wire 1 2 beq $end
$var wire 32 3 alu_result [31:0] $end
$var wire 32 4 alu_branch_result [31:0] $end
$var reg 1 5 clk $end
$var reg 32 6 cycle_count [31:0] $end
$var reg 1 7 rst $end
$scope module dut $end
$var wire 32 8 alu_branch_result [31:0] $end
$var wire 32 9 alu_result [31:0] $end
$var wire 1 2 beq $end
$var wire 1 1 bgeq $end
$var wire 1 0 blt $end
$var wire 1 / bneq $end
$var wire 1 5 clk $end
$var wire 1 : control_transfer $end
$var wire 32 ; current_pc [31:0] $end
$var wire 32 < debug_cycle_counter [31:0] $end
$var wire 32 = debug_mem_addr_16 [31:0] $end
$var wire 32 > debug_r10_internal [31:0] $end
$var wire 32 ? debug_r1_internal [31:0] $end
$var wire 32 @ debug_r2_internal [31:0] $end
$var wire 32 A debug_r9_internal [31:0] $end
$var wire 32 B debug_reg_r1 [31:0] $end
$var wire 32 C debug_reg_r10 [31:0] $end
$var wire 32 D debug_reg_r2 [31:0] $end
$var wire 32 E debug_reg_r9 [31:0] $end
$var wire 32 F debug_signature [31:0] $end
$var wire 32 G instruction_out [31:0] $end
$var wire 1 & jump $end
$var wire 1 % mem_to_reg $end
$var wire 32 H pc [31:0] $end
$var wire 1 # reg_write $end
$var wire 1 7 rst $end
$var wire 1 " store_enable $end
$var wire 32 I wb_write_data [31:0] $end
$var wire 1 J stall_pc $end
$var wire 1 K stall_if_id $end
$var wire 1 L mem_wb_reg_write $end
$var wire 5 M mem_wb_rd [4:0] $end
$var wire 32 N mem_wb_pc_plus_4 [31:0] $end
$var wire 1 O mem_wb_mem_to_reg $end
$var wire 32 P mem_wb_mem_data [31:0] $end
$var wire 32 Q mem_wb_lui_imm [31:0] $end
$var wire 1 R mem_wb_lui_control $end
$var wire 1 S mem_wb_jump $end
$var wire 1 T mem_wb_jalr $end
$var wire 32 U mem_wb_alu_result [31:0] $end
$var wire 1 V mem_reg_write $end
$var wire 5 W mem_rd [4:0] $end
$var wire 32 X mem_pc_plus_4 [31:0] $end
$var wire 1 Y mem_mem_to_reg $end
$var wire 32 Z mem_lui_imm [31:0] $end
$var wire 1 [ mem_lui_control $end
$var wire 1 \ mem_jump $end
$var wire 1 ] mem_jalr $end
$var wire 32 ^ mem_data [31:0] $end
$var wire 32 _ mem_branch_target [31:0] $end
$var wire 1 ` mem_branch_taken $end
$var wire 32 a mem_alu_result [31:0] $end
$var wire 32 b if_pc_plus_4 [31:0] $end
$var wire 32 c if_pc [31:0] $end
$var wire 32 d if_instruction [31:0] $end
$var wire 32 e if_id_pc_plus_4 [31:0] $end
$var wire 32 f if_id_pc [31:0] $end
$var wire 32 g if_id_instruction [31:0] $end
$var wire 1 h if_id_flush $end
$var wire 1 i id_store_enable $end
$var wire 32 j id_selected_immediate [31:0] $end
$var wire 1 k id_reg_write $end
$var wire 32 l id_read_data2 [31:0] $end
$var wire 32 m id_read_data1 [31:0] $end
$var wire 1 n id_mem_to_reg $end
$var wire 2 o id_mem_size [1:0] $end
$var wire 1 p id_lui_control $end
$var wire 1 q id_jump $end
$var wire 1 r id_jalr $end
$var wire 1 s id_is_unsigned $end
$var wire 1 t id_ex_store_enable $end
$var wire 5 u id_ex_shamt [4:0] $end
$var wire 5 v id_ex_rs2 [4:0] $end
$var wire 5 w id_ex_rs1 [4:0] $end
$var wire 1 x id_ex_reg_write $end
$var wire 32 y id_ex_read_data2 [31:0] $end
$var wire 32 z id_ex_read_data1 [31:0] $end
$var wire 5 { id_ex_rd [4:0] $end
$var wire 32 | id_ex_pc_plus_4 [31:0] $end
$var wire 32 } id_ex_pc [31:0] $end
$var wire 1 ~ id_ex_mem_to_reg $end
$var wire 2 !" id_ex_mem_size [1:0] $end
$var wire 1 "" id_ex_lui_control $end
$var wire 1 #" id_ex_lb $end
$var wire 1 $" id_ex_jump $end
$var wire 1 %" id_ex_jalr $end
$var wire 1 &" id_ex_is_unsigned $end
$var wire 32 '" id_ex_immediate [31:0] $end
$var wire 1 (" id_ex_flush $end
$var wire 1 )" id_ex_bneq_control $end
$var wire 1 *" id_ex_blt_control $end
$var wire 1 +" id_ex_bgeq_control $end
$var wire 1 ," id_ex_beq_control $end
$var wire 1 -" id_ex_alu_src $end
$var wire 6 ." id_ex_alu_control [5:0] $end
$var wire 1 /" id_bneq_control $end
$var wire 1 0" id_blt_control $end
$var wire 1 1" id_bgeq_control $end
$var wire 1 2" id_beq_control $end
$var wire 1 3" id_alu_src $end
$var wire 6 4" id_alu_control [5:0] $end
$var wire 32 5" ex_write_data [31:0] $end
$var wire 5 6" ex_rd [4:0] $end
$var wire 32 7" ex_pc_plus_4 [31:0] $end
$var wire 32 8" ex_mem_write_data [31:0] $end
$var wire 1 9" ex_mem_store_enable $end
$var wire 1 :" ex_mem_reg_write $end
$var wire 5 ;" ex_mem_rd [4:0] $end
$var wire 32 <" ex_mem_pc_plus_4 [31:0] $end
$var wire 1 =" ex_mem_mem_to_reg $end
$var wire 2 >" ex_mem_mem_size [1:0] $end
$var wire 32 ?" ex_mem_lui_imm [31:0] $end
$var wire 1 @" ex_mem_lui_control $end
$var wire 1 A" ex_mem_lb $end
$var wire 1 B" ex_mem_jump $end
$var wire 1 C" ex_mem_jalr $end
$var wire 1 D" ex_mem_is_unsigned $end
$var wire 32 E" ex_mem_branch_target [31:0] $end
$var wire 1 F" ex_mem_branch_taken $end
$var wire 1 G" ex_mem_branch_resolved $end
$var wire 32 H" ex_mem_alu_result [31:0] $end
$var wire 32 I" ex_branch_target [31:0] $end
$var wire 1 J" ex_branch_taken $end
$var wire 1 K" ex_branch_resolved $end
$var wire 32 L" ex_alu_result [31:0] $end
$var wire 32 M" debug_mem_internal [31:0] $end
$var reg 32 N" cycle_counter [31:0] $end
$scope module EX_MEM_reg $end
$var wire 1 5 clk $end
$var wire 1 7 rst $end
$var wire 32 O" write_data_in [31:0] $end
$var wire 1 t store_enable_in $end
$var wire 1 x reg_write_in $end
$var wire 5 P" rd_in [4:0] $end
$var wire 32 Q" pc_plus_4_in [31:0] $end
$var wire 1 ~ mem_to_reg_in $end
$var wire 2 R" mem_size_in [1:0] $end
$var wire 32 S" lui_imm_in [31:0] $end
$var wire 1 "" lui_control_in $end
$var wire 1 #" lb_in $end
$var wire 1 $" jump_in $end
$var wire 1 %" jalr_in $end
$var wire 1 &" is_unsigned_in $end
$var wire 32 T" branch_target_in [31:0] $end
$var wire 1 J" branch_taken_in $end
$var wire 1 K" branch_resolved_in $end
$var wire 32 U" alu_result_in [31:0] $end
$var reg 32 V" alu_result_out [31:0] $end
$var reg 1 G" branch_resolved_out $end
$var reg 1 F" branch_taken_out $end
$var reg 32 W" branch_target_out [31:0] $end
$var reg 1 D" is_unsigned_out $end
$var reg 1 C" jalr_out $end
$var reg 1 B" jump_out $end
$var reg 1 A" lb_out $end
$var reg 1 @" lui_control_out $end
$var reg 32 X" lui_imm_out [31:0] $end
$var reg 2 Y" mem_size_out [1:0] $end
$var reg 1 =" mem_to_reg_out $end
$var reg 32 Z" pc_plus_4_out [31:0] $end
$var reg 5 [" rd_out [4:0] $end
$var reg 1 :" reg_write_out $end
$var reg 1 9" store_enable_out $end
$var reg 32 \" write_data_out [31:0] $end
$upscope $end
$scope module EX_stage $end
$var wire 1 K" branch_resolved $end
$var wire 1 J" branch_taken_out $end
$var wire 1 5 clk $end
$var wire 32 ]" ex_mem_alu_result [31:0] $end
$var wire 5 ^" ex_mem_rd [4:0] $end
$var wire 1 :" ex_mem_reg_write $end
$var wire 1 _" is_branch $end
$var wire 32 `" pc_plus_4_out [31:0] $end
$var wire 5 a" rd_out [4:0] $end
$var wire 1 7 rst $end
$var wire 32 b" write_data_out [31:0] $end
$var wire 5 c" shamt_in [4:0] $end
$var wire 5 d" rs2_in [4:0] $end
$var wire 5 e" rs1_in [4:0] $end
$var wire 32 f" read_data2_in [31:0] $end
$var wire 32 g" read_data1_in [31:0] $end
$var wire 5 h" rd_in [4:0] $end
$var wire 32 i" pc_plus_4_in [31:0] $end
$var wire 32 j" pc_in [31:0] $end
$var wire 32 k" mem_wb_result [31:0] $end
$var wire 1 L mem_wb_reg_write $end
$var wire 5 l" mem_wb_rd [4:0] $end
$var wire 1 $" jump_in $end
$var wire 1 %" jalr_in $end
$var wire 32 m" immediate_in [31:0] $end
$var wire 2 n" forward_b [1:0] $end
$var wire 2 o" forward_a [1:0] $end
$var wire 32 p" branch_target_out [31:0] $end
$var wire 1 q" branch_condition_met $end
$var wire 1 )" bneq_control_in $end
$var wire 1 *" blt_control_in $end
$var wire 1 +" bgeq_control_in $end
$var wire 1 ," beq_control_in $end
$var wire 1 -" alu_src_in $end
$var wire 32 r" alu_result_out [31:0] $end
$var wire 6 s" alu_control_in [5:0] $end
$scope module alu $end
$var wire 32 t" ex_mem_alu_result_in [31:0] $end
$var wire 5 u" shamt [4:0] $end
$var wire 32 v" read_data2_in [31:0] $end
$var wire 32 w" read_data1_in [31:0] $end
$var wire 32 x" mem_wb_result_in [31:0] $end
$var wire 32 y" imm_val_r [31:0] $end
$var wire 32 z" forwarded_src2_reg [31:0] $end
$var wire 32 {" forwarded_src1 [31:0] $end
$var wire 2 |" forwardB [1:0] $end
$var wire 2 }" forwardA [1:0] $end
$var wire 32 ~" final_src2 [31:0] $end
$var wire 1 -" alu_src $end
$var wire 6 !# alu_control [5:0] $end
$var reg 32 "# result [31:0] $end
$upscope $end
$scope module fu $end
$var wire 5 ## ex_mem_rd [4:0] $end
$var wire 1 :" ex_mem_reg_write $end
$var wire 1 L mem_wb_reg_write $end
$var wire 5 $# mem_wb_rd [4:0] $end
$var wire 5 %# id_ex_rs2 [4:0] $end
$var wire 5 &# id_ex_rs1 [4:0] $end
$var reg 2 '# forwardA [1:0] $end
$var reg 2 (# forwardB [1:0] $end
$upscope $end
$upscope $end
$scope module ID_EX_reg $end
$var wire 1 5 clk $end
$var wire 5 )# rd_in [4:0] $end
$var wire 5 *# rs1_in [4:0] $end
$var wire 5 +# rs2_in [4:0] $end
$var wire 1 7 rst $end
$var wire 5 ,# shamt_in [4:0] $end
$var wire 1 i store_enable_in $end
$var wire 1 k reg_write_in $end
$var wire 32 -# read_data2_in [31:0] $end
$var wire 32 .# read_data1_in [31:0] $end
$var wire 32 /# pc_plus_4_in [31:0] $end
$var wire 32 0# pc_in [31:0] $end
$var wire 1 n mem_to_reg_in $end
$var wire 2 1# mem_size_in [1:0] $end
$var wire 1 p lui_control_in $end
$var wire 1 n lb_in $end
$var wire 1 q jump_in $end
$var wire 1 r jalr_in $end
$var wire 1 s is_unsigned_in $end
$var wire 32 2# immediate_in [31:0] $end
$var wire 1 (" flush $end
$var wire 1 /" bneq_control_in $end
$var wire 1 0" blt_control_in $end
$var wire 1 1" bgeq_control_in $end
$var wire 1 2" beq_control_in $end
$var wire 1 3" alu_src_in $end
$var wire 6 3# alu_control_in [5:0] $end
$var reg 6 4# alu_control_out [5:0] $end
$var reg 1 -" alu_src_out $end
$var reg 1 ," beq_control_out $end
$var reg 1 +" bgeq_control_out $end
$var reg 1 *" blt_control_out $end
$var reg 1 )" bneq_control_out $end
$var reg 32 5# immediate_out [31:0] $end
$var reg 1 &" is_unsigned_out $end
$var reg 1 %" jalr_out $end
$var reg 1 $" jump_out $end
$var reg 1 #" lb_out $end
$var reg 1 "" lui_control_out $end
$var reg 2 6# mem_size_out [1:0] $end
$var reg 1 ~ mem_to_reg_out $end
$var reg 32 7# pc_out [31:0] $end
$var reg 32 8# pc_plus_4_out [31:0] $end
$var reg 5 9# rd_out [4:0] $end
$var reg 32 :# read_data1_out [31:0] $end
$var reg 32 ;# read_data2_out [31:0] $end
$var reg 1 x reg_write_out $end
$var reg 5 <# rs1_out [4:0] $end
$var reg 5 =# rs2_out [4:0] $end
$var reg 5 ># shamt_out [4:0] $end
$var reg 1 t store_enable_out $end
$upscope $end
$scope module ID_stage $end
$var wire 1 ?# branch_prediction $end
$var wire 1 5 clk $end
$var wire 32 @# debug_r1 [31:0] $end
$var wire 32 A# debug_r10 [31:0] $end
$var wire 32 B# debug_r2 [31:0] $end
$var wire 32 C# debug_r9 [31:0] $end
$var wire 1 G" ex_mem_branch_resolved $end
$var wire 1 F" ex_mem_branch_taken_actual $end
$var wire 32 D# ex_mem_branch_target_actual [31:0] $end
$var wire 1 =" ex_mem_mem_read $end
$var wire 5 E# ex_mem_rd [4:0] $end
$var wire 1 #" id_ex_mem_read $end
$var wire 5 F# id_ex_rd [4:0] $end
$var wire 1 G# is_branch_instruction $end
$var wire 1 H# is_jump_instruction $end
$var wire 32 I# predicted_target [31:0] $end
$var wire 1 7 rst $end
$var wire 5 J# write_reg_num [4:0] $end
$var wire 32 K# write_data [31:0] $end
$var wire 1 i store_enable $end
$var wire 1 J stall_pc $end
$var wire 1 K stall_if_id $end
$var wire 32 L# selected_immediate [31:0] $end
$var wire 1 k reg_write_out $end
$var wire 1 L reg_write $end
$var wire 32 M# read_data2 [31:0] $end
$var wire 32 N# read_data1 [31:0] $end
$var wire 5 O# rd [4:0] $end
$var wire 32 P# pc_plus_4_in [31:0] $end
$var wire 32 Q# pc_in [31:0] $end
$var wire 7 R# opcode [6:0] $end
$var wire 1 n mem_to_reg $end
$var wire 2 S# mem_size [1:0] $end
$var wire 1 p lui_control $end
$var wire 1 q jump $end
$var wire 1 r jalr $end
$var wire 1 s is_unsigned $end
$var wire 32 T# instruction_in [31:0] $end
$var wire 32 U# imm_val_store [31:0] $end
$var wire 32 V# imm_val_lui [31:0] $end
$var wire 32 W# imm_val_jump [31:0] $end
$var wire 32 X# imm_val_i [31:0] $end
$var wire 32 Y# imm_val_branch [31:0] $end
$var wire 1 h if_id_flush $end
$var wire 1 (" id_ex_flush $end
$var wire 1 /" bneq_control $end
$var wire 1 0" blt_control $end
$var wire 1 1" bgeq_control $end
$var wire 1 2" beq_control $end
$var wire 1 3" alu_src $end
$var wire 6 Z# alu_control [5:0] $end
$scope module cu $end
$var wire 3 [# funct3 [2:0] $end
$var wire 7 \# funct7 [6:0] $end
$var wire 7 ]# opcode [6:0] $end
$var reg 6 ^# alu_control [5:0] $end
$var reg 1 3" alu_src $end
$var reg 1 2" beq_control $end
$var reg 1 1" bgeq_control $end
$var reg 1 0" blt_control $end
$var reg 1 /" bneq_control $end
$var reg 1 s is_unsigned $end
$var reg 1 r jalr $end
$var reg 1 q jump $end
$var reg 1 p lui_control $end
$var reg 2 _# mem_size [1:0] $end
$var reg 1 n mem_to_reg $end
$var reg 1 k reg_write $end
$var reg 1 i store_enable $end
$upscope $end
$scope module hdu $end
$var wire 1 G" branch_resolved $end
$var wire 1 F" branch_taken_actual $end
$var wire 32 `# branch_target_actual [31:0] $end
$var wire 1 #" id_ex_mem_read $end
$var wire 5 a# id_ex_rd [4:0] $end
$var wire 5 b# id_rs1 [4:0] $end
$var wire 5 c# id_rs2 [4:0] $end
$var wire 1 d# misprediction $end
$var wire 32 e# pc_plus_4 [31:0] $end
$var reg 1 (" id_ex_flush $end
$var reg 1 h if_id_flush $end
$var reg 1 K stall_if_id $end
$var reg 1 J stall_pc $end
$upscope $end
$scope module rfu $end
$var wire 1 5 clk $end
$var wire 32 f# debug_r1 [31:0] $end
$var wire 32 g# debug_r10 [31:0] $end
$var wire 32 h# debug_r2 [31:0] $end
$var wire 32 i# debug_r9 [31:0] $end
$var wire 5 j# read_reg_num1 [4:0] $end
$var wire 5 k# read_reg_num2 [4:0] $end
$var wire 1 7 rst $end
$var wire 5 l# write_reg_num1 [4:0] $end
$var wire 32 m# write_data [31:0] $end
$var wire 1 L reg_write $end
$var wire 32 n# read_data2 [31:0] $end
$var wire 32 o# read_data1 [31:0] $end
$var integer 32 p# i [31:0] $end
$upscope $end
$upscope $end
$scope module IF_ID_reg $end
$var wire 1 5 clk $end
$var wire 1 h flush $end
$var wire 1 7 rst $end
$var wire 1 K stall $end
$var wire 32 q# pc_plus_4_in [31:0] $end
$var wire 32 r# pc_in [31:0] $end
$var wire 32 s# instruction_in [31:0] $end
$var reg 32 t# instruction_out [31:0] $end
$var reg 32 u# pc_out [31:0] $end
$var reg 32 v# pc_plus_4_out [31:0] $end
$upscope $end
$scope module IF_stage $end
$var wire 1 : branch_taken $end
$var wire 32 w# branch_target [31:0] $end
$var wire 1 5 clk $end
$var wire 1 x# jalr_taken $end
$var wire 1 y# jump_taken $end
$var wire 32 z# pc_out [31:0] $end
$var wire 32 {# pc_plus_4_out [31:0] $end
$var wire 1 7 rst $end
$var wire 1 J stall_pc $end
$var wire 32 |# pc_plus_4 [31:0] $end
$var wire 32 }# next_pc [31:0] $end
$var wire 32 ~# instruction_out [31:0] $end
$var reg 32 !$ pc [31:0] $end
$scope module imem $end
$var wire 1 5 clk $end
$var wire 32 "$ pc [31:0] $end
$var wire 1 7 reset $end
$var wire 32 #$ instruction_code [31:0] $end
$var integer 32 $$ i [31:0] $end
$upscope $end
$upscope $end
$scope module MEM_WB_reg $end
$var wire 1 5 clk $end
$var wire 1 7 rst $end
$var wire 1 V reg_write_in $end
$var wire 5 %$ rd_in [4:0] $end
$var wire 32 &$ pc_plus_4_in [31:0] $end
$var wire 1 Y mem_to_reg_in $end
$var wire 32 '$ mem_data_in [31:0] $end
$var wire 32 ($ lui_imm_in [31:0] $end
$var wire 1 [ lui_control_in $end
$var wire 1 \ jump_in $end
$var wire 1 ] jalr_in $end
$var wire 32 )$ alu_result_in [31:0] $end
$var reg 32 *$ alu_result_out [31:0] $end
$var reg 1 T jalr_out $end
$var reg 1 S jump_out $end
$var reg 1 R lui_control_out $end
$var reg 32 +$ lui_imm_out [31:0] $end
$var reg 32 ,$ mem_data_out [31:0] $end
$var reg 1 O mem_to_reg_out $end
$var reg 32 -$ pc_plus_4_out [31:0] $end
$var reg 5 .$ rd_out [4:0] $end
$var reg 1 L reg_write_out $end
$upscope $end
$scope module MEM_stage $end
$var wire 32 /$ alu_result_in [31:0] $end
$var wire 32 0$ alu_result_out [31:0] $end
$var wire 1 F" branch_taken_in $end
$var wire 1 ` branch_taken_out $end
$var wire 32 1$ branch_target_in [31:0] $end
$var wire 32 2$ branch_target_out [31:0] $end
$var wire 1 5 clk $end
$var wire 1 D" is_unsigned_in $end
$var wire 1 C" jalr_in $end
$var wire 1 ] jalr_out $end
$var wire 1 B" jump_in $end
$var wire 1 \ jump_out $end
$var wire 1 @" lui_control_in $end
$var wire 1 [ lui_control_out $end
$var wire 32 3$ lui_imm_in [31:0] $end
$var wire 32 4$ lui_imm_out [31:0] $end
$var wire 2 5$ mem_size_in [1:0] $end
$var wire 1 =" mem_to_reg_in $end
$var wire 1 Y mem_to_reg_out $end
$var wire 32 6$ pc_plus_4_in [31:0] $end
$var wire 32 7$ pc_plus_4_out [31:0] $end
$var wire 5 8$ rd_in [4:0] $end
$var wire 5 9$ rd_out [4:0] $end
$var wire 1 :" reg_write_in $end
$var wire 1 V reg_write_out $end
$var wire 1 7 rst $end
$var wire 1 9" store_enable_in $end
$var wire 32 :$ write_data_in [31:0] $end
$var wire 32 ;$ mem_data_out [31:0] $end
$var wire 32 <$ debug_mem_addr_16 [31:0] $end
$scope module dmu $end
$var wire 1 5 clk $end
$var wire 1 D" is_unsigned $end
$var wire 2 =$ mem_size [1:0] $end
$var wire 32 >$ read_addr [31:0] $end
$var wire 1 7 rst $end
$var wire 32 ?$ write_addr [31:0] $end
$var wire 32 @$ write_data [31:0] $end
$var wire 1 9" write_enable $end
$var wire 32 A$ read_data [31:0] $end
$var wire 32 B$ debug_mem_addr_16 [31:0] $end
$var integer 32 C$ i [31:0] $end
$upscope $end
$upscope $end
$scope module WB_stage $end
$var wire 32 D$ alu_result_in [31:0] $end
$var wire 1 T jalr_in $end
$var wire 1 S jump_in $end
$var wire 1 R lui_control_in $end
$var wire 32 E$ lui_imm_in [31:0] $end
$var wire 32 F$ mem_data_in [31:0] $end
$var wire 1 O mem_to_reg_in $end
$var wire 32 G$ pc_plus_4_in [31:0] $end
$var wire 5 H$ rd_register [4:0] $end
$var wire 1 L reg_write_in $end
$var wire 32 I$ write_data [31:0] $end
$upscope $end
$upscope $end
$scope task verify_comprehensive_results $end
$var real 1 J$ success_rate $end
$var integer 32 K$ tests_passed [31:0] $end
$var integer 32 L$ total_tests [31:0] $end
$upscope $end
$upscope $end
$enddefinitions $end
#0
$dumpvars
bx L$
bx K$
r0 J$
bx I$
bz H$
bx G$
bx F$
bx E$
bx D$
bx C$
bx B$
bx A$
bx @$
bx ?$
bx >$
bx =$
bx <$
bx ;$
bx :$
bx 9$
bx 8$
bx 7$
bx 6$
bx 5$
bx 4$
bx 3$
bx 2$
bx 1$
bx 0$
bx /$
bx .$
bx -$
bx ,$
bx +$
bx *$
bx )$
bx ($
bx '$
bx &$
bx %$
bx $$
bx #$
bx "$
bx !$
bx ~#
bx }#
bx |#
bx {#
bx z#
0y#
0x#
bx w#
bx v#
bx u#
bx t#
bx s#
bx r#
bx q#
bx p#
bx o#
bx n#
bx m#
bx l#
bx k#
bx j#
bx i#
bx h#
bx g#
bx f#
bx e#
xd#
bx c#
bx b#
bx a#
bx `#
bx _#
bx ^#
bx ]#
bx \#
bx [#
bx Z#
bx0 Y#
bx X#
bx0 W#
bx000000000000 V#
bx U#
bx T#
bx S#
bx R#
bx Q#
bx P#
bx O#
bx N#
bx M#
bx L#
bx K#
bx J#
bx I#
0H#
0G#
bx F#
bx E#
bx D#
bx C#
bx B#
bx A#
bx @#
0?#
bx >#
bx =#
bx <#
bx ;#
bx :#
bx 9#
bx 8#
bx 7#
bx 6#
bx 5#
bx 4#
bx 3#
bx 2#
bx 1#
bx 0#
bx /#
bx .#
bx -#
bx ,#
bx +#
bx *#
bx )#
bx (#
bx '#
bx &#
bx %#
bx $#
bx ##
bx "#
bx !#
bx ~"
bx }"
bx |"
bx {"
bx z"
bx y"
bx x"
bx w"
bx v"
bx u"
bx t"
bx s"
bx r"
xq"
bx p"
bx o"
bx n"
bx m"
bx l"
bx k"
bx j"
bx i"
bx h"
bx g"
bx f"
bx e"
bx d"
bx c"
bx b"
bx a"
bx `"
x_"
bx ^"
bx ]"
bx \"
bx ["
bx Z"
bx Y"
bx X"
bx W"
bx V"
bx U"
bx T"
bx S"
bx R"
bx Q"
bx P"
bx O"
bx N"
bx M"
bx L"
xK"
xJ"
bx I"
bx H"
xG"
xF"
bx E"
xD"
xC"
xB"
xA"
x@"
bx ?"
bx >"
x="
bx <"
bx ;"
x:"
x9"
bx 8"
bx 7"
bx 6"
bx 5"
bx 4"
x3"
x2"
x1"
x0"
x/"
bx ."
x-"
x,"
x+"
x*"
x)"
x("
bx '"
x&"
x%"
x$"
x#"
x""
bx !"
x~
bx }
bx |
bx {
bx z
bx y
xx
bx w
bx v
bx u
xt
xs
xr
xq
xp
bx o
xn
bx m
bx l
xk
bx j
xi
xh
bx g
bx f
bx e
bx d
bx c
bx b
bx a
x`
bx _
bx ^
x]
x\
x[
bx Z
xY
bx X
bx W
xV
bx U
xT
xS
xR
bx Q
bx P
xO
bx N
bx M
xL
xK
xJ
bx I
bx H
bx G
b11011110101011011011111011101111 F
bx E
bx D
bx C
bx B
bx A
bx @
bx ?
bx >
bx =
bx <
bx ;
x:
bx 9
bx 8
17
b0 6
05
bx 4
bx 3
x2
x1
x0
x/
bx .
bx -
bx ,
bx +
bx *
bx )
bx (
bx '
x&
x%
bx $
x#
x"
b11011110101011011011111011101111 !
$end
#5000
0K"
0J"
b0 I"
b0 T"
b0 p"
b0 ^
b0 '$
b0 ;$
b0 A$
b0 o
b0 1#
b0 S#
b0 _#
0r
0s
0p
0i
0q
00"
01"
0/"
02"
0n
0k
03"
b0 4"
b0 3#
b0 Z#
b0 ^#
b0 l
b0 -#
b0 M#
b0 n#
b0 m
b0 .#
b0 N#
b0 o#
b0 j
b0 2#
b0 L#
0_"
b0 U#
b0 W#
b0 V#
b0 Y#
b0 X#
b0 c#
b0 b#
b0 ]#
b0 [#
b0 \#
b0 k#
b0 j#
b0 O#
b0 R#
b0 ,#
b0 )#
b0 +#
b0 *#
b0 ~"
b0 z"
b0 5"
b0 O"
b0 b"
b0 {"
0("
0h
0K
0J
0&
00
01
0/
02
0q"
b0 4
b0 8
b0 3
b0 9
b0 L"
b0 U"
b0 r"
b0 "#
b100 }#
0d#
0:
b0 I
b0 k"
b0 x"
b0 K#
b0 m#
b0 I$
b0 n"
b0 |"
b0 (#
b0 o"
b0 }"
b0 '#
b100 b
b100 q#
b100 {#
b100 |#
b100000000000010010011 '
b100000000000010010011 G
b100000000000010010011 d
b100000000000010010011 s#
b100000000000010010011 ~#
b100000000000010010011 #$
b0 .
b0 ;
b0 $
b0 H
b0 c
b0 r#
b0 z#
b0 !$
b0 "$
b0 I#
b0 e
b0 /#
b0 P#
b0 e#
b0 v#
b0 g
b0 T#
b0 t#
b0 f
b0 0#
b0 Q#
b0 u#
b0 *
b0 C
b0 >
b0 A#
b0 g#
b0 (
b0 E
b0 A
b0 C#
b0 i#
b0 )
b0 D
b0 @
b0 B#
b0 h#
b0 +
b0 B
b0 ?
b0 @#
b0 f#
0-"
b0 u
b0 c"
b0 u"
b0 >#
b0 6"
b0 P"
b0 a"
b0 {
b0 h"
b0 9#
b0 F#
b0 a#
b0 v
b0 d"
b0 %#
b0 =#
b0 w
b0 e"
b0 &#
b0 <#
b0 '"
b0 S"
b0 m"
b0 y"
b0 5#
b0 y
b0 f"
b0 v"
b0 ;#
b0 z
b0 g"
b0 w"
b0 :#
b0 7"
b0 Q"
b0 `"
b0 |
b0 i"
b0 8#
b0 }
b0 j"
b0 7#
b0 !"
b0 R"
b0 6#
0&"
0#"
0""
0%"
0$"
0*"
0+"
0)"
0,"
0t
b0 ."
b0 s"
b0 !#
b0 4#
0~
0x
b0 _
b0 2$
b0 E"
b0 W"
b0 D#
b0 `#
b0 w#
b0 1$
0`
0F"
0G"
b0 W
b0 %$
b0 9$
b0 ;"
b0 ["
b0 ^"
b0 ##
b0 E#
b0 8$
b0 Z
b0 ($
b0 4$
b0 ?"
b0 X"
b0 3$
b0 X
b0 &$
b0 7$
b0 <"
b0 Z"
b0 6$
b0 8"
b0 \"
b0 :$
b0 @$
b0 a
b0 )$
b0 0$
b0 H"
b0 V"
b0 ]"
b0 t"
b0 /$
b0 >$
b0 ?$
b0 >"
b0 Y"
b0 5$
b0 =$
0D"
0]
0C"
0\
0B"
0[
0@"
0A"
0"
09"
0Y
0%
0="
0V
0:"
b0 M
b0 l"
b0 $#
b0 J#
b0 l#
b0 .$
b0 Q
b0 +$
b0 E$
b0 N
b0 -$
b0 G$
b0 P
b0 ,$
b0 F$
b0 U
b0 *$
b0 D$
0T
0S
0R
0O
0#
0L
b0 -
b0 <
b0 N"
b100000000 $$
b100000 p#
b0 ,
b0 =
b0 M"
b0 <$
b0 B$
b10000000000 C$
15
#10000
05
#15000
b10000000000 C$
b100000 p#
b100000000000010010011 '
b100000000000010010011 G
b100000000000010010011 d
b100000000000010010011 s#
b100000000000010010011 ~#
b100000000000010010011 #$
b100000000 $$
15
#20000
05
#25000
b100000000000010010011 '
b100000000000010010011 G
b100000000000010010011 d
b100000000000010010011 s#
b100000000000010010011 ~#
b100000000000010010011 #$
b100000000 $$
b100000 p#
b10000000000 C$
15
#30000
05
#35000
b10000000000 C$
b100000 p#
b100000000000010010011 '
b100000000000010010011 G
b100000000000010010011 d
b100000000000010010011 s#
b100000000000010010011 ~#
b100000000000010010011 #$
b100000000 $$
15
#40000
05
#45000
b100000000000010010011 '
b100000000000010010011 G
b100000000000010010011 d
b100000000000010010011 s#
b100000000000010010011 ~#
b100000000000010010011 #$
b100000000 $$
b100000 p#
b10000000000 C$
15
#50000
05
#55000
b10000000000 C$
b100000 p#
b100000000000010010011 '
b100000000000010010011 G
b100000000000010010011 d
b100000000000010010011 s#
b100000000000010010011 ~#
b100000000000010010011 #$
b100000000 $$
15
#60000
05
#65000
b100000000000010010011 '
b100000000000010010011 G
b100000000000010010011 d
b100000000000010010011 s#
b100000000000010010011 ~#
b100000000000010010011 #$
b100000000 $$
b100000 p#
b10000000000 C$
15
#70000
05
#75000
b10000000000 C$
b100000 p#
b100000000000010010011 '
b100000000000010010011 G
b100000000000010010011 d
b100000000000010010011 s#
b100000000000010010011 ~#
b100000000000010010011 #$
b100000000 $$
15
#80000
05
#85000
b100000000000010010011 '
b100000000000010010011 G
b100000000000010010011 d
b100000000000010010011 s#
b100000000000010010011 ~#
b100000000000010010011 #$
b100000000 $$
b100000 p#
b10000000000 C$
15
#90000
05
#95000
b1 6
07
b10000000000 C$
b100000 p#
b100000000000010010011 '
b100000000000010010011 G
b100000000000010010011 d
b100000000000010010011 s#
b100000000000010010011 ~#
b100000000000010010011 #$
b100000000 $$
15
#100000
05
